{
  "json": {
    "handlers": null,
    "properties": [
      {
        "name": "label",
        "type": "string",
        "editor-props": { "label": "Label" }
      },
      {
        "name": "labelPositioning",
        "type": "code",
        "editor-props": {
          "label": "Label Positioning",
          "valueset": "http://genfhi.com/label-positioning",
          "component-type": "radio",
          "default-value": "left"
        }
      },
      {
        "name": "disabled?",
        "type": "boolean",
        "editor-props": { "label": "Read-only?" },
        "storybook-default": false
      },
      {
        "name": "placeholder-string",
        "type": "string",
        "editor-props": { "label": "Placeholder" },
        "storybook-default": "placeholder text"
      },
      {
        "name": "value",
        "type": "string",
        "editor-props": { "label": "Value" },
        "storybook-default": "value"
      }
    ]
  },
  "list": {
    "handlers": null,
    "properties": [
      {
        "name": "label",
        "type": "string",
        "editor-props": { "label": "Label" }
      },
      {
        "name": "labelPositioning",
        "type": "code",
        "editor-props": {
          "label": "Label Positioning",
          "valueset": "http://genfhi.com/label-positioning",
          "component-type": "radio",
          "default-value": "left"
        }
      },
      { "name": "value", "type": "json", "editor-props": { "label": "Data" } }
    ]
  },
  "image": {
    "handlers": null,
    "properties": [
      {
        "name": "label",
        "type": "string",
        "editor-props": { "label": "Label" }
      },
      {
        "name": "labelPositioning",
        "type": "code",
        "editor-props": {
          "label": "Label Positioning",
          "valueset": "http://genfhi.com/label-positioning",
          "component-type": "radio",
          "default-value": "left"
        }
      },
      {
        "name": "src",
        "type": "string",
        "editor-props": { "label": "Source" }
      },
      {
        "name": "style",
        "type": "string",
        "editor-props": { "label": "Style", "height": "80px" }
      }
    ]
  },
  "label": {
    "handlers": null,
    "properties": [
      {
        "name": "label",
        "type": "string",
        "editor-props": { "label": "Label" }
      },
      {
        "name": "labelPositioning",
        "type": "code",
        "editor-props": {
          "label": "Label Positioning",
          "valueset": "http://genfhi.com/label-positioning",
          "component-type": "radio",
          "default-value": "left"
        }
      }
    ]
  },
  "text": {
    "handlers": null,
    "properties": [
      {
        "name": "label",
        "type": "string",
        "editor-props": { "label": "Label" }
      },
      {
        "name": "labelPositioning",
        "type": "code",
        "editor-props": {
          "label": "Label Positioning",
          "valueset": "http://genfhi.com/label-positioning",
          "component-type": "radio",
          "default-value": "left"
        }
      },
      {
        "name": "isDisabled",
        "type": "boolean",
        "editor-props": { "label": "Read-only?" }
      },
      { "name": "value", "type": "string", "editor-props": null },
      {
        "name": "style",
        "type": "string",
        "editor-props": { "label": "Style", "height": "80px" }
      }
    ]
  },
  "time": {
    "handlers": null,
    "properties": [
      {
        "name": "label",
        "type": "string",
        "editor-props": { "label": "Label" }
      },
      {
        "name": "labelPositioning",
        "type": "code",
        "editor-props": {
          "label": "Label Positioning",
          "valueset": "http://genfhi.com/label-positioning",
          "component-type": "radio",
          "default-value": "left"
        }
      },
      {
        "name": "isDisabled",
        "type": "boolean",
        "editor-props": { "label": "Read-only?" },
        "storybook-default": false
      },
      {
        "name": "value",
        "type": "string",
        "editor-props": { "label": "Value" },
        "storybook-default": "1980-01-01"
      }
    ]
  },
  "datetime": {
    "handlers": null,
    "properties": [
      {
        "name": "label",
        "type": "string",
        "editor-props": { "label": "Label" }
      },
      {
        "name": "labelPositioning",
        "type": "code",
        "editor-props": {
          "label": "Label Positioning",
          "valueset": "http://genfhi.com/label-positioning",
          "component-type": "radio",
          "default-value": "left"
        }
      },
      {
        "name": "isDisabled",
        "type": "boolean",
        "editor-props": { "label": "Read-only?" },
        "storybook-default": false
      },
      {
        "name": "value",
        "type": "string",
        "editor-props": { "label": "Value" },
        "storybook-default": "1980-01-01"
      }
    ]
  },
  "questionnaire": {
    "handlers": null,
    "properties": [
      {
        "name": "label",
        "type": "string",
        "editor-props": { "label": "Label" }
      },
      {
        "name": "labelPositioning",
        "type": "code",
        "editor-props": {
          "label": "Label Positioning",
          "valueset": "http://genfhi.com/label-positioning",
          "component-type": "radio",
          "default-value": "left"
        }
      },
      {
        "name": "questionnaire",
        "type": "json",
        "editor-props": { "label": "Questionnaire" }
      },
      {
        "name": "questionnaireResponse",
        "type": "json",
        "editor-props": { "label": "Questionnaire Response" }
      }
    ]
  },
  "integer": {
    "handlers": null,
    "properties": [
      {
        "name": "label",
        "type": "string",
        "editor-props": { "label": "Label" }
      },
      {
        "name": "labelPositioning",
        "type": "code",
        "editor-props": {
          "label": "Label Positioning",
          "valueset": "http://genfhi.com/label-positioning",
          "component-type": "radio",
          "default-value": "left"
        }
      },
      {
        "name": "isDisabled",
        "type": "boolean",
        "editor-props": { "label": "Read-only?" },
        "storybook-default": false
      },
      {
        "name": "type",
        "hide?": true,
        "type": "string",
        "storybook-default": "integer",
        "editor-props": null
      },
      {
        "name": "value",
        "hide?": true,
        "type": "number",
        "storybook-default": 0,
        "editor-props": null
      },
      { "name": "value", "type": "integer", "editor-props": null }
    ]
  },
  "date": {
    "handlers": null,
    "properties": [
      {
        "name": "label",
        "type": "string",
        "editor-props": { "label": "Label" }
      },
      {
        "name": "labelPositioning",
        "type": "code",
        "editor-props": {
          "label": "Label Positioning",
          "valueset": "http://genfhi.com/label-positioning",
          "component-type": "radio",
          "default-value": "left"
        }
      },
      {
        "name": "isDisabled",
        "type": "boolean",
        "editor-props": { "label": "Read-only?" },
        "storybook-default": false
      },
      {
        "name": "value",
        "type": "string",
        "editor-props": { "label": "Value" },
        "storybook-default": "1980-01-01"
      }
    ]
  },
  "html": {
    "handlers": null,
    "properties": [
      {
        "name": "value",
        "type": "string",
        "editor-props": {
          "label": "HTML",
          "height": "250px",
          "allow-modal": true
        }
      }
    ]
  },
  "react": {
    "handlers": null,
    "properties": [
      {
        "name": "props",
        "type": "json",
        "editor-props": {
          "label": "Data Model",
          "height": "250px",
          "allow-modal": true
        }
      },
      {
        "name": "value",
        "type": "string",
        "editor-props": {
          "label": "HTML",
          "height": "250px",
          "allow-modal": true
        }
      }
    ]
  },
  "code": {
    "handlers": null,
    "properties": [
      {
        "name": "label",
        "type": "string",
        "editor-props": { "label": "Label" }
      },
      {
        "name": "labelPositioning",
        "type": "code",
        "editor-props": {
          "label": "Label Positioning",
          "valueset": "http://genfhi.com/label-positioning",
          "component-type": "radio",
          "default-value": "left"
        }
      },
      {
        "name": "isDisabled",
        "type": "boolean",
        "editor-props": { "label": "Read-only?" }
      },
      { "name": "value", "type": "string", "editor-props": null }
    ]
  },
  "button": {
    "handlers": ["on-click"],
    "properties": [
      {
        "name": "type",
        "type": "code",
        "editor-props": {
          "label": "Type",
          "component-type": "select",
          "valueset": {
            "expansion": {
              "contains": [
                { "code": "primary", "display": "Primary" },
                { "code": "secondary", "display": "Secondary" },
                { "code": "danger", "display": "Danger" }
              ]
            }
          },
          "default-value": "primary"
        },
        "storybook-default": "primary"
      },
      {
        "name": "className",
        "type": "string",
        "hide?": true,
        "storybook-default": "",
        "editor-props": null
      },
      {
        "name": "label",
        "type": "string",
        "editor-props": { "label": "Label" }
      },
      {
        "name": "isDisabled",
        "type": "boolean",
        "editor-props": { "label": "Read-only?" }
      },
      {
        "name": "style",
        "type": "string",
        "editor-props": { "label": "Style", "height": "80px" }
      }
    ]
  },
  "decimal": {
    "handlers": null,
    "properties": [
      {
        "name": "label",
        "type": "string",
        "editor-props": { "label": "Label" }
      },
      {
        "name": "labelPositioning",
        "type": "code",
        "editor-props": {
          "label": "Label Positioning",
          "valueset": "http://genfhi.com/label-positioning",
          "component-type": "radio",
          "default-value": "left"
        }
      },
      {
        "name": "isDisabled",
        "type": "boolean",
        "editor-props": { "label": "Read-only?" },
        "storybook-default": false
      },
      {
        "name": "type",
        "hide?": true,
        "type": "string",
        "storybook-default": "integer",
        "editor-props": null
      },
      {
        "name": "value",
        "hide?": true,
        "type": "number",
        "storybook-default": 0,
        "editor-props": null
      },
      { "name": "value", "type": "decimal", "editor-props": null }
    ]
  }
}
